#Telepítés

# pip install django==2.0.2

django-admin startproject belagaleria

cd belagaleria

python manage.py startapp kepek

*******************************************************
Adatbázis : SQLI
*********************************************************

python manage.py migrate

python manage.py makemigrations

pip install pillow==5.0.0

python manage.py migrate

*********************************************************
#Szuper Admin létrehozása

python manage.py createsuperuser

bela
email: email cimed

pass: galeria12

*********************************************************

python manage.py runserver
